<?xml version="1.0" encoding="utf-8"?>
<!-- Generator: Adobe Illustrator 17.0.0, SVG Export Plug-In . SVG Version: 6.00 Build 0)  -->
<!DOCTYPE svg PUBLIC "-//W3C//DTD SVG 1.1//EN" "http://www.w3.org/Graphics/SVG/1.1/DTD/svg11.dtd">
<svg version="1.1" id="Layer_1" xmlns="http://www.w3.org/2000/svg" xmlns:xlink="http://www.w3.org/1999/xlink" x="0px" y="0px"
	 width="87px" height="19px" viewBox="0 0 87 19" enable-background="new 0 0 87 19" xml:space="preserve">
<title>OuiSurf</title>
<g enable-background="new    ">
	<path d="M9.913,0.622c4.632,0,8.761,3.385,8.761,8.881c0,5.473-4.128,8.857-8.761,8.857c-4.608,0-8.737-3.385-8.737-8.857
		C1.176,4.007,5.305,0.622,9.913,0.622z M9.913,15.144c2.64,0,5.329-1.824,5.329-5.664c0-3.841-2.688-5.665-5.329-5.665
		c-2.616,0-5.305,1.824-5.305,5.665C4.608,13.319,7.297,15.144,9.913,15.144z"/>
	<path d="M28.945,16.728c-0.648,1.104-2.016,1.585-3.264,1.585c-2.856,0-4.489-2.089-4.489-4.657V6.191h3.192v6.816
		c0,1.32,0.672,2.376,2.16,2.376c1.416,0,2.232-0.96,2.232-2.328V6.191h3.192v9.673c0,0.912,0.072,1.728,0.12,2.136h-3.048
		C28.993,17.76,28.945,17.208,28.945,16.728z"/>
	<path d="M36.96,0.334c1.104,0,1.968,0.889,1.968,1.992c0,1.057-0.864,1.944-1.968,1.944c-1.08,0-1.968-0.888-1.968-1.944
		C34.992,1.223,35.88,0.334,36.96,0.334z M35.376,18V6.191h3.192V18H35.376z"/>
	<path d="M50.688,5.951c-0.168-0.937-0.936-2.4-3.096-2.4c-1.608,0-2.665,1.032-2.665,2.16c0,0.937,0.601,1.68,1.849,1.92
		l2.376,0.456c3.097,0.601,4.753,2.616,4.753,5.017c0,2.616-2.185,5.257-6.145,5.257c-4.513,0-6.505-2.904-6.769-5.329l3.072-0.815
		c0.144,1.68,1.319,3.192,3.72,3.192c1.776,0,2.761-0.889,2.761-2.089c0-0.983-0.744-1.752-2.064-2.016l-2.376-0.48
		c-2.712-0.552-4.464-2.304-4.464-4.872c0-3.024,2.712-5.329,5.928-5.329c4.128,0,5.713,2.497,6.097,4.417L50.688,5.951z"/>
	<path d="M63.793,16.728c-0.648,1.104-2.017,1.585-3.265,1.585c-2.856,0-4.488-2.089-4.488-4.657V6.191h3.192v6.816
		c0,1.32,0.672,2.376,2.16,2.376c1.416,0,2.232-0.96,2.232-2.328V6.191h3.191v9.673c0,0.912,0.072,1.728,0.12,2.136h-3.048
		C63.841,17.76,63.793,17.208,63.793,16.728z"/>
	<path d="M77.425,9.359c-0.36-0.072-0.672-0.096-0.96-0.096c-1.633,0-3.049,0.792-3.049,3.336V18h-3.192V6.191h3.097v1.752
		c0.72-1.561,2.353-1.849,3.36-1.849c0.264,0,0.504,0.024,0.744,0.048V9.359z"/>
	<path d="M83.952,4.895v1.297h2.664v2.735h-2.664V18h-3.217V8.927h-1.968V6.191h1.968V4.847c0-2.664,1.681-4.393,4.297-4.393
		c0.672,0,1.32,0.12,1.584,0.24v2.688c-0.168-0.048-0.48-0.12-1.008-0.12C84.888,3.263,83.952,3.575,83.952,4.895z"/>
</g>
</svg>
